Diagnosing Schizophrenia from Voice
…
dur (s): duration (in seconds) of the full recording

phonationtime (s): duration (in seconds) of the recording
where speech is present

speechrate (nsyll/dur): average number of syllables per
second

articulation rate (nsyll/phonationtime): average number of
syllables per second where speech is present

articulation <- read_tsv("data/articulation_data.tsv") %>% rename(Study = study, ID = id, Diagnosis = diagnosis, Trial = trial)
articulation

## # A tibble: 1,900 × 13
##    Study    ID Diagnosis Trial duration phonation_duration pause_duration
##    <dbl> <dbl> <chr>     <dbl>    <dbl>              <dbl>          <dbl>
##  1     1   101 control       1     3.6                2.24           1.36
##  2     1   101 control      10     2.2                1.46           0.74
##  3     1   101 control       2     9                  3.33           5.67
##  4     1   101 control       3     6.08               4.18           1.9 
##  5     1   101 control       4     9.57               5.46           4.11
##  6     1   101 control       5    12.7                6.56           6.14
##  7     1   101 control       6     5.28               3.58           1.7 
##  8     1   101 control       7     5.7                3.22           2.48
##  9     1   101 control       8     2.9                1.42           1.48
## 10     1   101 control       9    10.5                6.69           3.84
## # ℹ 1,890 more rows
## # ℹ 6 more variables: n_syllables <dbl>, n_pauses <dbl>,
## #   `speech_rate (n_syllables/duration)` <dbl>,
## #   `articulation_rate (n_syllables/phonation_duration)` <dbl>,
## #   average_syllable_duration <dbl>, average_pause_duration <dbl>
…
iqr: Interquartile range

mad: Mean absolute deviation

coefvar: Coefficient of variation

pitch <- read_tsv("data/pitch_data.tsv")
pitch

## # A tibble: 1,900 × 12
##    Study Diagnosis    ID Trial  mean    sd   min   max median   iqr   mad
##    <dbl> <chr>     <dbl> <dbl> <dbl> <dbl> <dbl> <dbl>  <dbl> <dbl> <dbl>
##  1     1 control     101     1  133. 21.9  106.   212.   124. 35.2  17.3 
##  2     1 control     101    10  132.  6.83  98.3  143.   133.  8.13  5.91
##  3     1 control     101     2  133. 18.2  114.   240.   129. 14.9  10.5 
##  4     1 control     101     3  122. 12.2   90.8  210.   123.  6.66  4.88
##  5     1 control     101     4  125.  9.10  95.9  178.   124. 12.7   9.38
##  6     1 control     101     5  131. 21.5   90.4  242.   128. 14.2  10.4 
##  7     1 control     101     6  131. 25.6   90.3  246.   123. 22.2  15.0 
##  8     1 control     101     7  157. 36.7  101    241.   144. 61.1  33.7 
##  9     1 control     101     8  116.  4.97 105.   130.   116.  7.01  5.03
## 10     1 control     101     9  130. 19.7   93.8  221.   128. 24.4  18.8 
## # ℹ 1,890 more rows
## # ℹ 1 more variable: coefvar <dbl>
…
dataset

## # A tibble: 1,900 × 21
##    Study ID         Diagnosis Trial duration phonation_duration pause_duration
##    <fct> <chr>      <fct>     <fct>    <dbl>              <dbl>          <dbl>
##  1 1     101control control   1         3.6                2.24           1.36
##  2 1     101control control   10        2.2                1.46           0.74
##  3 1     101control control   2         9                  3.33           5.67
##  4 1     101control control   3         6.08               4.18           1.9 
##  5 1     101control control   4         9.57               5.46           4.11
##  6 1     101control control   5        12.7                6.56           6.14
##  7 1     101control control   6         5.28               3.58           1.7 
##  8 1     101control control   7         5.7                3.22           2.48
##  9 1     101control control   8         2.9                1.42           1.48
## 10 1     101control control   9        10.5                6.69           3.84
## # ℹ 1,890 more rows
## # ℹ 14 more variables: n_syllables <dbl>, n_pauses <dbl>, rate_of_speech <dbl>,
## #   rate_of_articulation <dbl>, average_syllable_duration <dbl>,
## #   mean_pause_duration <dbl>, pitch_mean <dbl>, pitch_sd <dbl>,
## #   pitch_min <dbl>, pitch_max <dbl>, pitch_median <dbl>, pitch_iqr <dbl>,
## #   pitch_mad <dbl>, pitch_CV <dbl>
…
Developing a Random Forest classifier, training it on a curated
dataset to establish a baseline for diagnostic accuracy.

Splitting the data in training and testing sets

dataset_split <- initial_split(
  dataset, 
  prop = 0.7,
  strata = Diagnosis
)

training(dataset_split)

## # A tibble: 1,329 × 21
##    Study ID         Diagnosis Trial duration phonation_duration pause_duration
##    <fct> <chr>      <fct>     <fct>    <dbl>              <dbl>          <dbl>
##  1 1     101control control   10        2.2                1.46           0.74
##  2 1     101control control   5        12.7                6.56           6.14
##  3 1     101control control   8         2.9                1.42           1.48
##  4 1     101control control   9        10.5                6.69           3.84
##  5 1     102control control   10        5.89               4.06           1.83
##  6 1     102control control   2        14.4                9.22           5.14
##  7 1     102control control   4        15.7               11.6            4.16
##  8 1     102control control   5         6.6                5.14           1.46
##  9 1     102control control   6         9.14               6.59           2.55
## 10 1     102control control   7        13                  8.99           4.01
## # ℹ 1,319 more rows
## # ℹ 14 more variables: n_syllables <dbl>, n_pauses <dbl>, rate_of_speech <dbl>,
## #   rate_of_articulation <dbl>, average_syllable_duration <dbl>,
## #   mean_pause_duration <dbl>, pitch_mean <dbl>, pitch_sd <dbl>,
## #   pitch_min <dbl>, pitch_max <dbl>, pitch_median <dbl>, pitch_iqr <dbl>,
## #   pitch_mad <dbl>, pitch_CV <dbl>
…
Testing the model’s predictions on the testing set

predicted <- testing(dataset_split) %>%
  mutate(
    Predicted = predict(rf_fit, new_data = testing(dataset_split))$.pred_class,
    Prob_Control = predict(rf_fit, new_data = testing(dataset_split), type = "prob")$.pred_control %>% round(2)
  )
predicted %>% select(Diagnosis, Predicted, Prob_Control)

## # A tibble: 571 × 3
##    Diagnosis Predicted     Prob_Control
##    <fct>     <fct>                <dbl>
##  1 control   schizophrenia         0.46
##  2 control   control               0.55
##  3 control   control               0.63
##  4 control   schizophrenia         0.45
##  5 control   schizophrenia         0.42
##  6 control   schizophrenia         0.48
##  7 control   control               0.53
##  8 control   schizophrenia         0.42
##  9 control   schizophrenia         0.45
## 10 control   schizophrenia         0.36
## # ℹ 561 more rows
…
